waves.vcd
$date
	Mon Dec 25 15:31:45 2023
$end
$version
	Icarus Verilog
$end
$timescale
	1ps
$end
$scope module cordic_tb_generated $end
$var wire 32 ! y_int [31:0] $end
$var wire 32 " x_int [31:0] $end
$var reg 1 # clk $end
$var reg 1 $ rst_n $end
$var real 1 % error_x_a $end
$var real 1 & error_x_r $end
$var real 1 ' error_y_a $end
$var real 1 ( error_y_r $end
$var real 1 ) xc_out_int $end
$var real 1 * xv_out_int $end
$var real 1 + yc_out_int $end
$var real 1 , yv_out_int $end
$var integer 32 - z_tgt_int [31:0] $end
$var integer 32 . z_tgt_int_delay [31:0] $end
$scope module cordic_i $end
$var wire 1 # clk $end
$var wire 1 $ rst_n $end
$var wire 16 / z_tgt [15:0] $end
$var wire 16 0 y_out [15:0] $end
$var wire 16 1 x_out [15:0] $end
$var reg 256 2 x [255:0] $end
$var reg 256 3 y [255:0] $end
$var reg 256 4 z [255:0] $end
$upscope $end
$upscope $end
$enddefinitions $end
#0
$dumpvars
b0 4
b0 3
b0 2
b0 1
b0 0
b1111110000011000 /
bx .
b11111111111111111111110000011000 -
r0 ,
r0 +
r0 *
r0 )
r0 (
r0 '
r0 &
r0 %
0$
0#
b0 "
b0 !
$end
#1000
1#
#2000
0#
#3000
1#
#4000
0#
#5000
1#
#6000
0#
#7000
1#
#8000
0#
#9000
1#
#10000
0#
#11000
1#
#12000
0#
#13000
1#
#14000
0#
#15000
1#
#16000
0#
#17000
1#
#18000
0#
#19000
1#
#20000
b0 /
b0 -
0#
1$
#21000
b1111111111111111111111111111110111111111111110111111111111110110111111111110110011111111110101111111111110101111111111110101110111111110101110101111110101110100111110101110101011110101110111101110110000001010110110100011100011000000000000000000000000000000 4
b100110110111010 2
1#
#22000
b1111101000 /
b1111101000 -
0#
#23000
b1001101101110100000000000000000 3
b1001101101110100100110110111010 2
b1111111111111110111111111111111011111111111110111111111111110110111111111110101111111111110110001111111110101110111111110101110111111110101110101111110101110110111110101111010011110110001011001110111000101110111001011100100011000000000000000000001111101000 4
1#
#24000
b11111010000 /
b11111010000 -
0#
#25000
b1001101101110101001101101110100000000000000000 3
b11101001001011101001101101110100100110110111010 2
b1111111111111111111111111111111011111111111110111111111111110101111111111110110011111111110101111111111110101110111111110101110111111110101111001111110110000000111110110100001011111000010100001111100110111110111001011100100011000011111010000000011111010000 4
1#
#26000
b101110111000 /
b101110111000 -
0#
#27000
b100110111000001001101101110101001101101110100000000000000000 3
b111111001001110011101001001011101001101101110100100110110111010 2
b1111111111111111111111111111111011111111111110101111111111110110111111111110101111111111110101111111111110101110111111110101111111111110110001101111110111001110111111010110011000000011111000001111100110111110111010011011000011000111110100000000101110111000 4
1#
#28000
b111110100000 /
b111110100000 -
0#
#29000
b11111001111011110000100110111000001001101101110101001101101110100000000000000000 3
b1111111100001010111111001001110011101001001011101001101101110100100110110111010 2
b1111111111111111111111111111110111111111111110111111111111110101111111111110101111111111110101111111111110110000111111110110100111111111000101001111111111110010111111101100101000000011111000001111110110100110111011011001100011001011101110000000111110100000 4
1#
#30000
b1001110001000 /
b1001110001000 -
0#
#31000
b11110011111111001111011110000100110111000001001101101110101001101101110100000000000000000 3
b11111111110011101111111100001010111111001001110011101001001011101001101101110100100110110111010 2
b1111111111111110111111111111111011111111111110101111111111110101111111111110101111111111110110011111111110111010111111111011011100000001001110000000000101010110111111101100101000000111110010000000000110001110111100011000000011001111101000000001001110001000 4
1#
#32000
b1011101110000 /
b1011101110000 -
0#
#33000
b1111110111101000000000011110011100011001100000010000100110111000001001101101110101001101101110100000000000000000 3
b111111111110110011111111110011101111101000101110111111001001110011101001001011101001101101110100100110110111010 2
b1111111111111111111111111111110111111111111110101111111111110101111111111110110111111111111000110000000000001000000000001001010100000000000100000000000101010110000000101011001011110111011011000000010101110110111101010110100011010011100010000001011101110000 4
1#
#34000
b1101101011000 /
b1101101011000 -
0#
#35000
b11111111111001110000010111100110000100011011000000011001100000010000100110111000001001101101110101001101101110100000000000000000 3
b1111111111111110111111111011000011111101010111101111101000101110111111001001110011101001001011101001101101110100100110110111010 2
b1111111111111110111111111111110111111111111110101111111111110111111111111111011111111111110111110000000001000100111111110110110100000000000100000000000000100110111111001000001011111011010101000000100101011110111110010101000011010111011100000001101101011000 4
1#
#36000
b1111101000000 /
b1111101000000 -
0#
#37000
b1110011000000111111001010000110110111011000100011011000000011001100000010000100110111000001001101101110101001101101110100000000000000000 3
b100000000000000001111111110000010111111100111100011111101010111101111101000101110111111001001110011101001001011101001101101110100100110110111010 2
b1111111111111110111111111111110111111111111111000000000000000001111111111111001100000000000110111111111110111110111111110110110111111110111000001111111100001110000000000110101011111111001111000000110101000110111111010011100011011011010110000001111101000000 4
1#
#38000
b10001100101000 /
b10001100101000 -
0#
#39000
b101100110000001101110011000001011101111110001010110100101000100011011000000011001100000010000100110111000001001101101110101001101101110100000000000000000 3
b1000000000000000011111111101000001111111011100100111111000100010011111101010111101111101000101110111111001001110011101001001011101001101101110100100110110111010 2
b1111111111111110111111111111111111111111111111001111111111111101000000000000011111111111111001111111111110111110111111111000001100000000010101001111110111011110000001000101001000000011001001000001000100101110000000010010000011011111010000000010001100101000 4
1#
#40000
b10011100010000 /
b10011100010000 -
0#
#41000
b1101001100000011001100111000011001011110100010011101011010001010110100101001000010101001000011001100000010100010000000010001001101101110101001101101110100000000000000000 3
b10000000000000000111111111010110011111110101101101111110011110000111111000100010011110110111111101111101000101110110101011100000011101001001011101001101101110100100110110111010 2
b111111111111111100000000000000101111111111111101111111111111101111111111111001111111111111010100111111111011000111111111001001000000000111000110111111100000111000000111000011001110110100101010000001010000100011100011001010000010011100010000 4
1#
#42000
b10101011111000 /
b10101011111000 -
0#
#43000
b11100011000000110001010000000110000111110000100101011000100010111100111010001110101110111001000010101001000110110101001100100010000000010001001101101110101001101101110100000000000000000 3
b100000000000000001111111110110010111111101100111011111101001111101111101110011000111110010001001011110110111111101110011011000000110101011100000011101001001011101001101101110100100110110111010 2
b111111111111111100000000000000100000000000000101111111111111101111111111111111010000000000000010111111111100011100000000100000000000000010011010000000011111011011110111010011001111000100010010000010001111000011100111000100000010101011111000 4
1#
#44000
b10111011100000 /
b10111011100000 -
0#
#45000
b111010110000001100000100100001100011111010001001000110011000110001001100000011111011010010010010100101101001011110111000000110110101001100100010000000010001001101101110101001101101110100000000000000000 3
b1000000000000000011111111101101001111111011000010111111010110001011111011001110101111100000101000111101001110101011101101100101001110011011000000110101011100000011101001001011101001101101110100100110110111010 2
b111111111111111100000000000000000000000000000101000000000001000111111111110110010000000000011000111111111101110111111111010101001111111101101010111111000110001011111011001101001111010011111010000011001101100011101010111110000010111011100000 4
1#
#46000
b11001011001000 /
b11001011001000 -
0#
#47000
b1110011100000011000011000000011000101111000010010011100100001100000011011000111100111000100100011010001000010101110111010001011110111000000110110101001100100010000000010001001101101110101001101101110100000000000000000 3
b10000000000000000111111111011010011111110110010001111110101010000111110110110101011111000101001001111011000010010111100001000101011101101100101001110011011000000110101011100000011101001001011101001101101110100100110110111010 2
b111111111111110100000000000000000000000000000111111111111110110111111111111011110000000000101110111111111111011100000000101100001111111011101110000000000100101011111111000111001111100011100010000100001100000011101110111000000011001011001000 4
1#
#48000
b11011010110000 /
b11011010110000 -
0#
#49000
b11100101000000110000111110000110001001111000100100101001100011000010110010001110111110101001001000011101000101001110110010011001100100110001011110111000000110110101001100100010000000010001001101101110101001101101110100000000000000000 3
b100000000000000001111111110110100111111101100101011111101010110001111101101010010111110001110000011110101100001101111000111100110111010101001111011101101100101001110011011000000110101011100000011101001001011101001101101110100100110110111010 2
b1111111111111110111111111111110100000000000000101111111111110111000000000000001100000000000001010000000001001000000000000000110100000000001101001111110110111110000001000011001000000011000001001111110011001010000101001010100011110010110010000011011010110000 4
1#
#50000
r-0.04791854232687533 ,
r0.9988512468337152 *
b11101010011000 /
b11101010011000 -
0#
b11111111111111111111110000011000 .
#51000
r0.0140380859375 +
r0.999969482421875 )
b111001100 !
b111001100 0
b111111111111111 "
b111111111111111 1
b111001100000001100010001000001100010010000001001001100010000110000111100000011110001100110010010010110100001010101100101000110001010100010011001100100110001111011101110000110110101001100100010000000010001001101101110101001101101110100000000000000000 3
b1000000000000000011111111101101001111111011001010111111010101010011111011010001101111100011000100111101010011111011110001010000001110110000110110111010101001111011011111111011001110011011000000110101011100000011101001001011101001101101110100100110110111010 2
b1111111111111110111111111111111111111111111111001111111111111001111111111111000100000000000111111111111110111100111111111001000111111111000001000000000110100110111111011110111000000110111011000000000010110010000110001001000011110110101100000011101010011000 4
1#
#52000
b11111010000000 /
b11111010000000 -
r-nan (
r0.0140380859375 '
r-3.0517578125e-05 %
r0 ,
r1 *
0#
b0 .
#53000
r0.047882080078125 +
r0.99884033203125 )
b111111111011010 "
b111111111011010 1
b11000100001 !
b11000100001 0
b11000100001000011000100010100010010010110110001100001101001000111100101001000100100011101110010101001010010001100000110010100110100111110110011101001011101001111011101110001010001010111100100010000000010001001101101110101001101101110100000000000000000 3
b111111111011010011111110110010101111110101010110111110110100110011111000101101101111010101100010111100011001010011101100111110101110100100000110111000111100100011011111111011001100010011000000110101011100000011101001001011101001101101110100100110110111010 2
b111111111111111111111111111111101111111111111011000000000000101111111111111001011111111111100010111111111010011100000000011000000000000001111010000000011101011011110110100100000000010010011010000111000111100011111010100110000011111010000000 4
1#
#54000
b100001001101000 /
b100001001101000 -
r29.29572824177224 (
r-0.003055267560784298 &
r-3.646224875032689e-05 '
r-1.09148024651784e-05 %
r0.04791854232687533 ,
r0.9988512468337152 *
0#
b1111101000 .
#55000
r0.0958251953125 +
r0.995269775390625 )
b110001000100 !
b110001000100 0
b111111101100101 "
b111111101100101 1
b110001000100000100100101100000011000011000100001111001100001001001000101100100101010000101100010111111101111001101011110010000111100001001000100000101011011010010110011100001010001010111100100010000000010001001101101110101001101101110100000000000000000 3
b111111101100101011111101010101101111101101001110111110001011000011110101011101001111000110111110111011010101101011101000001101001110000111110110110111000001000011001110111010101100010011000000110101011100000011101001001011101001101101110100100110110111010 2
b100000000000000000000000000000001111111111111100100000000000010111111111111111000111111111011110111111111001101001111111101001010111110111010011011111010011110000000100010000010001000000110000011111110100000000100001001101000 4
1#
#56000
b100011001010000 /
b100011001010000 -
r-0.03808983044305825 (
r-0.001096515856768361 &
r9.820381319283755e-05 '
r-0.0001378512119099007 %
r0.09572699149930716 ,
r0.9954076266025349 *
0#
b11111010000 .
#57000
r0.143341064453125 +
r0.989593505859375 )
b1001001011001 !
b1001001011001 0
b111111010101011 "
b111111010101011 1
b1001001011001000110000110010100011110011010000010010001001010001010100011010000101111101101000011010101110000001110110100001100111111101000110100011111111101010010110011100001010001010111100100010000000010001001101101110101001101101110100000000000000000 3
b111111010101011011111011010011101111100010101110111101010111110011110001101010101110110110001000111010001001111011100010111001101101111000011010110100111001110011001110111010101100010011000000110101011100000011101001001011101001101101110100100110110111010 2
b111111111111110111111111111111000000000000000011111111111111011100000000001000010000000000001110111111111101011100000000100100001111111000110010111111111000111011111110011000000000110001101010001001000100100000000010011010000100011001010000 4
1#
#58000
b100101000111000 /
b100101000111000 -
r0.06852281029540443 (
r-0.01392890860349237 &
r2.555715055349572e-05 '
r-8.354518637221364e-05 %
r0.1433155073025715 ,
r0.9896770510457472 *
0#
b101110111000 .
#59000
r0.1905517578125 +
r0.981658935546875 )
b1100001100100 !
b1100001100100 0
b111110110100111 "
b111110110100111 1
b1100001100100000111100110010100100100010100010010101000100101001011111101000100110101101010100011101011010010010000001000000101000110010101100100011111111101010010110011100001010001010111100100010000000010011101001001011101001101101110100000000000000000 3
b111110110100111011111000101011101111010101111000111100011011010011101101011100101110100001101010111000110101110011011101000111001101010111011010110100111001110011001110111010101100010011000000110101011100000001001101101110101001101101110100100110110111010 2
b1111111111111110111111111111111111111111111111100000000000000001000000000000110111111111111001010000000000101000111111111110110111111111011110000000001000011010000000110111011000000010010010000001000001010010110111001010000000000110010100000100101000111000 4
1#
#60000
b100111000100000 /
b100111000100000 -
r0.01341056457220729 (
r-0.00851049311516134 &
r-2.299700775273972e-05 '
r-1.375065010811305e-05 %
r0.1905747548202527 ,
r0.9816726861969831 *
0#
b111110100000 .
#61000
r0.2374267578125 +
r0.971405029296875 )
b1111001100100 !
b1111001100100 0
b111110001010111 "
b111110001010111 1
b1111001100100001001000100111000101010001011000010111111011111001101011000110100111011000010100100000000010011010001011000000101001001101001000100111001110011010101111000010001010001010111100110101011100000011101001001011101001101101110100000000000000000 3
b111110001010111011110101011110101111000110110000111011010110100011101000100001001110001100100010110111011001110011010110111100101101000101011110110010100011100010111010100101101100010011000000100010000000010001001101101110101001101101110100100110110111010 2
b111111111111111000000000000000011111111111111100111111111111111110000000000111110000000000001101100000000110101000000000011101010111111010011001000000110001100001111000010010110111000001000100000001010001110000100111000100000 4
1#
#62000
b101001000001000 /
b101001000001000 -
r-0.009687186252669403 (
r-0.001415530902954126 &
r3.060218059339204e-05 '
r-7.892838295942006e-06 %
r0.2373961556319066 ,
r0.9714129221351709 *
0#
b1001110001000 .
#63000
r0.283660888671875 +
r0.958892822265625 )
b10010001001111 !
b10010001001111 0
b111101010111101 "
b111101010111101 1
b10010001001111001010100010100100101111111001100011010101111111001110101110111001000000010010100100010111101100010010100111010101010000000001110101010010011010010101111000010001100010011000000110101011100000011101001001011101001101101110100000000000000000 3
b111101010111101011110001101100101110110101100100111010001001000011100011001111101101110101011100110101100110100011010000001110001100011111000110110000000000111010111010100101101010001010111100100010000000010001001101101110101001101101110100100110110111010 2
b111111111111111111111111111111100000000000000011000000000001001100000000000101011111111111001010000000000011000111111111101001001111111110111110000000010001101011111010101110001111010001111110111001000111000000001110001000000101001000001000 4
1#
#64000
b101010111110000 /
b101010111110000 -
r0.010787869717348 (
r-0.0008230954973028874 &
r-1.124860079343426e-05 '
r-2.850846758817305e-05 %
r0.2836721372726684 ,
r0.9589213307332132 *
0#
b1011101110000 .
#65000
r0.329345703125 +
r0.944122314453125 )
b10101000101000 !
b10101000101000 0
b111100011011001 "
b111100011011001 1
b10101000101000001011111110001100110101100001100011101011111100010000000110010101000101101101110100101011011101010011110100000001010011000110100101101001101110010111010100101101100010011000000110101011100000011101001001011101001101101110100000000000000000 3
b111100011011001011101101011001101110100010001010111000110011000011011101001111001101011010101100110011111010010011001001000001101100001010110010101101010001111010101111000010001010001010111100100010000000010001001101101110101001101101110100100110110111010 2
b111111111111111100000000000001001000000000000000111111111111100111111111111100000000000000100011100000001000001001111111010001110111111111100111011111110101000001111100001100110111010000101100000010010000010000101010111110000 4
1#
#66000
b101100111011000 /
b101100111011000 -
r-0.003415950330336613 (
r-0.00301924000456208 &
r4.932274332725139e-05 '
r-0.0001042970483348116 %
r0.3292963803816727 ,
r0.9442266115014598 *
0#
b1101101011000 .
#67000
r0.3741455078125 +
r0.927337646484375 )
b10111111100100 !
b10111111100100 0
b111011010110011 "
b111011010110011 1
b10111111100100001101011000001100111011000000110100000001110010010001011001110101001010101010100100111110100100010100111101110001011001000001000101101010001111010111010100101101100010011000000110101011100000011101001001011101001101101110100000000000000000 3
b111011010110011011101000100011001110001100101010110111010010110011010110110011101100111111101110110010000110100011000001011001101011011111110000101101001101110010101111000010001010001010111100100010000000010001001101101110101001101101110100100110110111010 2
b100000000000001001111111111110111000000000000011100000000000010011111111111110110000000000110000111111111110101000000001001011010000000111011011000000010100010001111110001001110111011000100000000010101111100000101100111011000 4
1#
#68000
b101110111000000 /
b101110111000000 -
r0.01318211667244319 (
r-0.01124663175942583 &
r-1.855515895793358e-05 '
r-2.487916602611495e-05 %
r0.3741640629714579 ,
r0.9273625256504011 *
0#
b1111101000000 .
#69000
r0.4180908203125 +
r0.90838623046875 )
b11010110000100 !
b11010110000100 0
b111010001000110 "
b111010001000110 1
b11010110000100001110110000011001000000011011000100010110101010010010101100001101001111011100100101010000111100010110000100110101011011111110000110000000000111011001110111010101100010011000000110101011100000011101001001011101001101101110100000000000000000 3
b111010001000110011100011001010001101110100110100110101101011111011001111110010101100100010110110110000001100000010111001010101001011001000001000101010010011010010010110011100001010001010111100100010000000010001001101101110101001101101110100100110110111010 2
b111111111111111001111111111111101111111111111010100000000000111110000000000010000000000000111011100000001000101000000000100101010111111010111001000000110011100000000000000110110111100000010100000011001110110000101110111000000 4
1#
#70000
b110000110101000 /
b110000110101000 -
r-0.004437206332548586 (
r-0.002738886772380259 &
r-8.128094464632252e-05 '
r1.841194467711027e-05 %
r0.4181721012571463 ,
r0.9083678185240729 *
0#
b10001100101000 .
#71000
r0.461151123046875 +
r0.8873291015625 )
b11101100000111 !
b11101100000111 0
b111000110010100 "
b111000110010100 1
b11101100000111010000000110100101000101101001000100101010110111010011111000101101010100011011000101100010101001010111001010101001100001010110010110010100011100011001110111010101110011011000000110101011100000011101001001011101001101101110100000000000000000 3
b111000110010100011011101001110001101011011000110110011111101110011001000100100001100000001101100101110001010010010110000100110101010011000110100100111001110011010010110011100000110110101001100100010000000010001001101101110101001101101110100100110110111010 2
b111111111111111100000000000000101111111111111111000000000000101111111111111001110000000000100110000000000111000111111111111001001111111111111110000000010101101011110110000101000000010000011110111101000001000000011101110000000110000110101000 4
1#
#72000
b110010110010000 /
b110010110010000 -
r-0.01762305467350863 (
r0.002075085369025809 &
r-6.826344521737582e-05 '
r4.297098011685208e-05 %
r0.4612193864920924 ,
r0.8872861305823831 *
0#
b10011100010000 .
#73000
r0.503173828125 +
r0.864166259765625 )
b100000001101000 !
b100000001101000 0
b110111010011101 "
b110111010011101 1
b100000001101000010001011010011101001010101100010100111110010111010101000101010001011000110101110101110100000010011000001011001101100011111000110110100111001110011011111111011001110011011000000110101011100000011101001001011101001101101110100000000000000000 3
b110111010011101011010110110000101100111111100100110010000111111011000000100101101011100001001100101011111110001010100111101110001010000000001110100011111111101001111011101110000110110101001100100010000000010001001101101110101001101101110100100110110111010 2
b111111111111111100000000000001000000000000000001111111111111101111111111111111010000000000100000000000001000011100000001010001001111111011001110111110110010101011111001111111000000100000000110111101111111100000100001101010000110010110010000 4
1#
#74000
b110100101111000 /
b110100101111000 -
r-0.01356567831432066 (
r0.004972538289143537 &
r-3.318914086891667e-05 '
r3.626287456981458e-07 %
r0.5032070172658689 ,
r0.8641658971368793 *
0#
b10101011111000 .
#75000
r0.54412841796875 +
r0.83892822265625 )
b100010110100110 !
b100010110100110 0
b110101101100010 "
b110101101100010 1
b100010110100110010010101011010001001111100111010101010001001000010110001100000001011101001011010110000100000110011001001000001101101000101011110110111000001000011011111111011001110011011000000110101011100000011101001001011101001101101110100000000000000000 3
b110101101100010011001111111000001100100001110110110000001010101010111000011110001010111110000110101001101111100010011110100000001001001101001000100000101011011001111011101110000110110101001100100010000000010001001101101110101001101101110100100110110111010 2
b111111111111111000000000000000101000000000001000111111111111101110000000000110110000000001010000100000000000101001111110110110110111111110001001011111101111001000000101111101110111110111110000000100101100100000110100101111000 4
1#
#76000
b110110101100000 /
b110110101100000 -
r-0.006100512967041052 (
r4.321844006865478e-05 &
r8.989123786617981e-05 '
r-0.0001320144140627422 %
r0.5440385267308838 ,
r0.8390602370703127 *
0#
b10111011100000 .
#77000
r0.583648681640625 +
r0.811981201171875 )
b100101010110101 !
b100101010110101 0
b110011111101111 "
b110011111101111 1
b100101010110101010011111001101001010100010011100101100011001011010111010001100001100001001011110110010011010010011010010100001001101101000000110110111000001000011011111111011001110011011000000110101011100000011101001001011101001101101110100000000000000000 3
b110011111101111011001000011110101100000010100000101110000110001010101111101101001010011010011000100111011011100010010001101001101000011000100110100000101011011001111011101110000110110101001100100010000000010001001101101110101001101101110100100110110111010 2
b111111111111111100000000000000000000000000000111000000000000101100000000000011010000000001010000111111110111000111111110111111000000000110011110000000101111101000000001110011000000111111010110111111111100100000101001011110000110110101100000 4
1#
#78000
b111000101001000 /
b111000101001000 -
r0.01540235458199638 (
r-0.01625739557563474 &
r2.85774050522436e-05 '
r-4.562962379472957e-05 %
r0.5836201042355728 ,
r0.8120268307956697 *
0#
b11001011001000 .
#79000
r0.621856689453125 +
r0.78314208984375 )
b100111110011001 !
b100111110011001 0
b110010000111110 "
b110010000111110 1
b100111110011001010101000101000101011000110100000101110100100010011000010100001101100100111110010110100011111010011011000111110101101111000011010111000111100100011101101100101001110011011000000110101011100000011101001001011101001101101110100000000000000000 3
b110010000111110011000000100111001011100001011000101011111001111010100110011010001001110101010100100100100111100010000111110110100111111101000110011101001011101001011110111000000110110101001100100010000000010001001101101110101001101101110100100110110111010 2
b111111111111110100000000000000100000000000000001111111111111100100000000001001111111111111000010111111111001111100000000010110000000000001101110111111001011011000000101101101000001001110111110000000111011000000101101011000000111000101001000 4
1#
#80000
b111010100110000 /
b111010100110000 -
r0.004595466469892829 (
r-0.00582658724532026 &
r-4.12140184036236e-06 '
r1.430210869268755e-05 %
r0.6218608108549654 ,
r0.7831277877350573 *
0#
b11011010110000 .
#81000
r0.65869140625 +
r0.752410888671875 )
b101010001010000 !
b101010001010000 0
b110000001001111 "
b110000001001111 1
b101010001010000010110001101001001011101001001110110000100111001011001010000110001101000110101100110110000111010011011111000110001110010110011010111010101001111011101101100101001110011011000000111111001001110011101001001011101001101101110100000000000000000 3
b110000001001111010111000010101001010111110010100101001101000000010011101001000101001001011100000100010001011001001111101100010100111000100101100011001100100110001011110111000000110110101001100000100110111000001001101101110101001101101110100100110110111010 2
b1111111111111110111111111111111111111111111111000000000000000011000000000001001111111111111010111111111111110000111111111011010111111111001010001111111101000010000000001001111000001001100111001110111110111010000001111001100000110001010010000111010100110000 4
1#
#82000
b111100100011000 /
b111100100011000 -
r-0.0006257130875032507 (
r0.001900790522410881 &
r1.861792655810657e-05 '
r-1.861495103738786e-05 %
r0.6586727883234419 ,
r0.7524295036229124 *
0#
b11101010011000 .
#83000
r0.693878173828125 +
r0.720062255859375 )
b101100011010001 !
b101100011010001 0
b101110000101011 "
b101110000101011 1
b101100011010001010111010010010101100001001111100110010100010101011010001100010001101100000110000110111101001110011100100101110001110100100000110111100001000101011101101100101001111101000101110111111001001110011101001001011101001101101110100000000000000000 3
b101110000101011010101111100110001010011001110100100111010000101010010011000101001000100100011110011111100110100001110010111101100110100111110110010101110111010001011110111000000011001100000010000100110111000001001101101110101001101101110100100110110111010 2
b111111111111111111111111111111100000000000001001111111111111111100000000000110010000000000000110111111111100101100000000100010001111111000010010000001001000011011111001110111001111001110100010000010111000000000110101001100000111100100011000 4
1#
#84000
b111110100000000 /
b111110100000000 -
r0.002682808675480524 (
r-0.002585400860629544 &
r-9.328706152900157e-05 '
r5.974789799334523e-05 %
r0.693971460889654 ,
r0.7200025079613817 *
0#
b11111010000000 .
