waves.vcd
$date
	Mon Dec 25 16:31:00 2023
$end
$version
	Icarus Verilog
$end
$timescale
	1ps
$end
$scope module cordic_tb_generated $end
$var wire 32 ! y_int [31:0] $end
$var wire 32 " x_int [31:0] $end
$var reg 1 # clk $end
$var reg 1 $ rst_n $end
$var real 1 % error_x_a $end
$var real 1 & error_x_r $end
$var real 1 ' error_y_a $end
$var real 1 ( error_y_r $end
$var real 1 ) xc_out_int $end
$var real 1 * xv_out_int $end
$var real 1 + yc_out_int $end
$var real 1 , yv_out_int $end
$var integer 32 - z_tgt_int [31:0] $end
$var integer 32 . z_tgt_int_delay [31:0] $end
$scope module cordic_i $end
$var wire 1 # clk $end
$var wire 1 $ rst_n $end
$var wire 16 / z_tgt [15:0] $end
$var wire 16 0 y_out [15:0] $end
$var wire 16 1 x_out [15:0] $end
$var reg 256 2 x [255:0] $end
$var reg 256 3 y [255:0] $end
$var reg 256 4 z [255:0] $end
$upscope $end
$upscope $end
$enddefinitions $end
#0
$dumpvars
b0 4
b0 3
b0 2
b0 1
b0 0
b1111110000011000 /
bx .
b11111111111111111111110000011000 -
r0 ,
r0 +
r0 *
r0 )
r0 (
r0 '
r0 &
r0 %
0$
0#
b0 "
b0 !
$end
#1000
1#
#2000
0#
#3000
1#
#4000
0#
#5000
1#
#6000
0#
#7000
1#
#8000
0#
#9000
1#
#10000
0#
#11000
1#
#12000
0#
#13000
1#
#14000
0#
#15000
1#
#16000
0#
#17000
1#
#18000
0#
#19000
1#
#20000
b0 /
b0 -
0#
1$
#21000
b1111111111111111111111111111110111111111111110111111111111110110111111111110110011111111110101111111111110101111111111110101110111111110101110101111110101110100111110101110101011110101110111101110110000001010110110100011100011000000000000000000000000000000 4
b100110110111010 2
1#
#22000
b1111101000 /
b1111101000 -
0#
#23000
b1001101101110100000000000000000 3
b1001101101110100100110110111010 2
b1111111111111110111111111111111011111111111110111111111111110110111111111110101111111111110110001111111110101110111111110101110111111110101110101111110101110110111110101111010011110110001011001110111000101110111001011100100011000000000000000000001111101000 4
1#
#24000
b11111010000 /
b11111010000 -
0#
#25000
b1001101101110101001101101110100000000000000000 3
b11101001001011101001101101110100100110110111010 2
b1111111111111111111111111111111011111111111110111111111111110101111111111110110011111111110101111111111110101110111111110101110111111110101111001111110110000000111110110100001011111000010100001111100110111110111001011100100011000011111010000000011111010000 4
1#
#26000
b101110111000 /
b101110111000 -
0#
#27000
b100110111000001001101101110101001101101110100000000000000000 3
b111111001001110011101001001011101001101101110100100110110111010 2
b1111111111111111111111111111111011111111111110101111111111110110111111111110101111111111110101111111111110101110111111110101111111111110110001101111110111001110111111010110011000000011111000001111100110111110111010011011000011000111110100000000101110111000 4
1#
#28000
b111110100000 /
b111110100000 -
0#
#29000
b11111001111011110000100110111000001001101101110101001101101110100000000000000000 3
b1111111100001010111111001001110011101001001011101001101101110100100110110111010 2
b1111111111111111111111111111110111111111111110111111111111110101111111111110101111111111110101111111111110110000111111110110100111111111000101001111111111110010111111101100101000000011111000001111110110100110111011011001100011001011101110000000111110100000 4
1#
#30000
b1001110001000 /
b1001110001000 -
0#
#31000
b11110011111111001111011110000100110111000001001101101110101001101101110100000000000000000 3
b11111111110011101111111100001010111111001001110011101001001011101001101101110100100110110111010 2
b1111111111111110111111111111111011111111111110101111111111110101111111111110101111111111110110011111111110111010111111111011011100000001001110000000000101010110111111101100101000000111110010000000000110001110111100011000000011001111101000000001001110001000 4
1#
#32000
b1011101110000 /
b1011101110000 -
0#
#33000
b1111110111101000000000011110011100011001100000010000100110111000001001101101110101001101101110100000000000000000 3
b111111111110110011111111110011101111101000101110111111001001110011101001001011101001101101110100100110110111010 2
b1111111111111111111111111111110111111111111110101111111111110101111111111110110111111111111000110000000000001000000000001001010100000000000100000000000101010110000000101011001011110111011011000000010101110110111101010110100011010011100010000001011101110000 4
1#
#34000
b1101101011000 /
b1101101011000 -
0#
#35000
b11111111111001110000010111100110000100011011000000011001100000010000100110111000001001101101110101001101101110100000000000000000 3
b1111111111111110111111111011000011111101010111101111101000101110111111001001110011101001001011101001101101110100100110110111010 2
b1111111111111110111111111111110111111111111110101111111111110111111111111111011111111111110111110000000001000100111111110110110100000000000100000000000000100110111111001000001011111011010101000000100101011110111110010101000011010111011100000001101101011000 4
1#
#36000
b1111101000000 /
b1111101000000 -
0#
#37000
b1110011000000111111001010000110110111011000100011011000000011001100000010000100110111000001001101101110101001101101110100000000000000000 3
b100000000000000001111111110000010111111100111100011111101010111101111101000101110111111001001110011101001001011101001101101110100100110110111010 2
b1111111111111110111111111111110111111111111111000000000000000001111111111111001100000000000110111111111110111110111111110110110111111110111000001111111100001110000000000110101011111111001111000000110101000110111111010011100011011011010110000001111101000000 4
1#
#38000
b10001100101000 /
b10001100101000 -
0#
#39000
b101100110000001101110011000001011101111110001010110100101000100011011000000011001100000010000100110111000001001101101110101001101101110100000000000000000 3
b1000000000000000011111111101000001111111011100100111111000100010011111101010111101111101000101110111111001001110011101001001011101001101101110100100110110111010 2
b1111111111111110111111111111111111111111111111001111111111111101000000000000011111111111111001111111111110111110111111111000001100000000010101001111110111011110000001000101001000000011001001000001000100101110000000010010000011011111010000000010001100101000 4
1#
#40000
b10011100010000 /
b10011100010000 -
0#
#41000
b1101001100000011001100111000011001011110100010011101011010001010110100101001000010101001000011001100000010100010000000010001001101101110101001101101110100000000000000000 3
b10000000000000000111111111010110011111110101101101111110011110000111111000100010011110110111111101111101000101110110101011100000011101001001011101001101101110100100110110111010 2
b111111111111111100000000000000101111111111111101111111111111101111111111111001111111111111010100111111111011000111111111001001000000000111000110111111100000111000000111000011001110110100101010000001010000100011100011001010000010011100010000 4
1#
#42000
b10101011111000 /
b10101011111000 -
0#
#43000
b11100011000000110001010000000110000111110000100101011000100010111100111010001110101110111001000010101001000110110101001100100010000000010001001101101110101001101101110100000000000000000 3
b100000000000000001111111110110010111111101100111011111101001111101111101110011000111110010001001011110110111111101110011011000000110101011100000011101001001011101001101101110100100110110111010 2
b111111111111111100000000000000100000000000000101111111111111101111111111111111010000000000000010111111111100011100000000100000000000000010011010000000011111011011110111010011001111000100010010000010001111000011100111000100000010101011111000 4
1#
#44000
b10111011100000 /
b10111011100000 -
0#
#45000
b111010110000001100000100100001100011111010001001000110011000110001001100000011111011010010010010100101101001011110111000000110110101001100100010000000010001001101101110101001101101110100000000000000000 3
b1000000000000000011111111101101001111111011000010111111010110001011111011001110101111100000101000111101001110101011101101100101001110011011000000110101011100000011101001001011101001101101110100100110110111010 2
b111111111111111100000000000000000000000000000101000000000001000111111111110110010000000000011000111111111101110111111111010101001111111101101010111111000110001011111011001101001111010011111010000011001101100011101010111110000010111011100000 4
1#
#46000
b11001011001000 /
b11001011001000 -
0#
#47000
b1110011100000011000011000000011000101111000010010011100100001100000011011000111100111000100100011010001000010101110111010001011110111000000110110101001100100010000000010001001101101110101001101101110100000000000000000 3
b10000000000000000111111111011010011111110110010001111110101010000111110110110101011111000101001001111011000010010111100001000101011101101100101001110011011000000110101011100000011101001001011101001101101110100100110110111010 2
b111111111111110100000000000000000000000000000111111111111110110111111111111011110000000000101110111111111111011100000000101100001111111011101110000000000100101011111111000111001111100011100010000100001100000011101110111000000011001011001000 4
1#
#48000
b11011010110000 /
b11011010110000 -
0#
#49000
b11100101000000110000111110000110001001111000100100101001100011000010110010001110111110101001001000011101000101001110110010011001100100110001011110111000000110110101001100100010000000010001001101101110101001101101110100000000000000000 3
b100000000000000001111111110110100111111101100101011111101010110001111101101010010111110001110000011110101100001101111000111100110111010101001111011101101100101001110011011000000110101011100000011101001001011101001101101110100100110110111010 2
b1111111111111110111111111111110100000000000000101111111111110111000000000000001100000000000001010000000001001000000000000000110100000000001101001111110110111110000001000011001000000011000001001111110011001010000101001010100011110010110010000011011010110000 4
1#
#50000
r-0.04791854232687533 ,
r0.9988512468337152 *
b11101010011000 /
b11101010011000 -
0#
b11111111111111111111110000011000 .
#51000
r0.0140380859375 +
r-1 )
b111001100 !
b111001100 0
b11111111111111111000000000000000 "
b1000000000000000 1
b111001100000001100010001000001100010010000001001001100010000110000111100000011110001100110010010010110100001010101100101000110001010100010011001100100110001111011101110000110110101001100100010000000010001001101101110101001101101110100000000000000000 3
b1000000000000000011111111101101001111111011001010111111010101010011111011010001101111100011000100111101010011111011110001010000001110110000110110111010101001111011011111111011001110011011000000110101011100000011101001001011101001101101110100100110110111010 2
b1111111111111110111111111111111111111111111111001111111111111001111111111111000100000000000111111111111110111100111111111001000111111111000001000000000110100110111111011110111000000110111011000000000010110010000110001001000011110110101100000011101010011000 4
1#
#52000
b11111010000000 /
b11111010000000 -
r0 ,
r1 *
0#
b0 .
